Data Project Sample Lottery
…
Thankfully we had no corrupted data values or unclean data. We can check this by calculating the summary statistics for each of the columns and looking for any anomalies.

#Delete non-numeric columns (not needed)

data <- select(data, -c("Draw Date", "Winning Numbers", "Cash Ball"))
data

## # A tibble: 1,637 x 6
##        A     B     C     D     E    CB
##    <dbl> <dbl> <dbl> <dbl> <dbl> <dbl>
##  1     7    20    22    30    46     3
##  2    26    27    32    47    55     1
##  3     4    30    44    52    55     4
##  4     4     6     7    17    46     1
##  5     5    22    23    44    59     4
##  6     6    10    18    41    50     2
##  7     8    28    35    46    57     4
##  8     2    10    15    22    29     4
##  9     1     5    11    21    33     4
## 10    14    30    34    40    48     2
## # ... with 1,627 more rows
…
